FederalGiving
…
Find average per state

Av2008=Year2008%>%group_by(state)%>%summarize(mean =mean(`2016_dollars`))
Av2012=Year2012%>%group_by(state)%>%summarize(mean =mean(`2016_dollars`))
Av2016=Year2016%>%group_by(state)%>%summarize(mean =mean(`2016_dollars`))

House.1=House%>%group_by(state, cycle)%>%summarize(mean =mean(`2016_dollars`))
House.1 <- na.omit(House.1) 

House of Representative Study

House 

## # A tibble: 56,896 x 13
##                                                       cmte_nm   cmte_id
##                                                         <chr>     <chr>
##  1                              A LOT OF PEOPLE FOR DAVE OBEY C00017830
##  2 A WHOLE LOT OF PEOPLE FOR GRIJALVA CONGRESSIONAL COMMITTEE C00374058
##  3 A WHOLE LOT OF PEOPLE FOR GRIJALVA CONGRESSIONAL COMMITTEE C00374058
##  4 A WHOLE LOT OF PEOPLE FOR GRIJALVA CONGRESSIONAL COMMITTEE C00374058
##  5 A WHOLE LOT OF PEOPLE FOR GRIJALVA CONGRESSIONAL COMMITTEE C00374058
##  6 A WHOLE LOT OF PEOPLE FOR GRIJALVA CONGRESSIONAL COMMITTEE C00374058
##  7                                ABEL MALDONADO FOR CONGRESS C00493379
##  8                                   ABERCROMBIE FOR CONGRESS C00247379
##  9                           ADAM CLAYTON POWELL FOR CONGRESS C00542761
## 10                                ABEL MALDONADO FOR CONGRESS C00493379
## # ... with 56,886 more rows, and 11 more variables: cmte_tp <chr>,
## #   cmte_pty <chr>, cand_name <chr>, cand_pty_affiliation <chr>,
## #   cleaned_name <chr>, city <chr>, state <chr>, zip_code <int>,
## #   classification <chr>, cycle <int>, `2016_dollars` <dbl>
…
